\relax 
\@writefile{toc}{\contentsline {section}{\numberline {1}Aufgabenstellung und Zielsetzung}{2}}
\@writefile{toc}{\contentsline {section}{\numberline {2}Versuchsaufbau}{3}}
\newlabel{aufbau}{{2}{3}}
\@writefile{lof}{\contentsline {figure}{\numberline {1}{\ignorespaces ABS Versuchsaufbau komplett}}{3}}
\@writefile{lof}{\contentsline {figure}{\numberline {2}{\ignorespaces Arduino Hardware inkl. Motorshield f\"ur die Steuerung des Motors}}{4}}
\@writefile{lof}{\contentsline {figure}{\numberline {3}{\ignorespaces ABS Rad mit Sensor f\"ur Interrupt und Servo f\"ur die Scheibenbremse sowie die Welle mit Anbindung an einen Motor zur Beschleunigung und Sensor f\"ur Interrupt}}{4}}
\@writefile{toc}{\contentsline {section}{\numberline {3}Modellierung}{5}}
\newlabel{modellierung}{{3}{5}}
\@writefile{toc}{\contentsline {subsection}{\numberline {3.1}Antrieb des Motors}{5}}
\@writefile{toc}{\contentsline {subsection}{\numberline {3.2}Servomotor Ansteuerung zum Bremsen}{5}}
\@writefile{toc}{\contentsline {subsection}{\numberline {3.3}Die Interrupts}{5}}
\@writefile{toc}{\contentsline {section}{\numberline {4}Implementierung}{6}}
\@writefile{toc}{\contentsline {subsection}{\numberline {4.1}Pin-Belegung der Komponenten}{6}}
\newlabel{pinbelegung}{{4.1}{6}}
\@writefile{toc}{\contentsline {subsubsection}{\numberline {4.1.1}Die Initialisierung}{6}}
\@writefile{lof}{\contentsline {figure}{\numberline {4}{\ignorespaces Quellcode zum Initialisieren der Pins und Funktionen}}{6}}
\@writefile{toc}{\contentsline {subsection}{\numberline {4.2}Beschleunigung der Welle}{7}}
\@writefile{toc}{\contentsline {subsection}{\numberline {4.3}Die Interrupt-Funktionen}{7}}
\@writefile{lof}{\contentsline {figure}{\numberline {5}{\ignorespaces Bei jedem Aufruf des Welleninterrupts wird dessen Zeitstempel gespeichert}}{7}}
\@writefile{lof}{\contentsline {figure}{\numberline {6}{\ignorespaces Bei jedem Aufruf des Welleninterrupts wird dessen Zeitstempel gespeichert}}{7}}
\@writefile{toc}{\contentsline {subsection}{\numberline {4.4}Die Bremslogik}{7}}
\@writefile{lof}{\contentsline {figure}{\numberline {7}{\ignorespaces Aufruf der loop-Funktion}}{8}}
\@writefile{toc}{\contentsline {subsection}{\numberline {4.5}Implementierung der Servo Bremsregelung}{9}}
\@writefile{lof}{\contentsline {figure}{\numberline {8}{\ignorespaces Quellcode f\"ur das erstellen der PWM}}{9}}
\@writefile{toc}{\contentsline {section}{\numberline {A}Quellcode}{10}}
\bibdata{bibfile}
\bibstyle{alphadin}
